…
The following objects are masked from ‘package:tidyr’:

    expand, pack, unpack

> 
> amazon_test <- vroom("./test.csv")
Rows: 58921 Columns: 10
── Column specification ────────────────────────────────────────────────────────
Delimiter: ","
dbl (10): id, RESOURCE, MGR_ID, ROLE_ROLLUP_1, ROLE_ROLLUP_2, ROLE_DEPTNAME,...

ℹ Use `spec()` to retrieve the full column specification for this data.
ℹ Specify the column types or set `show_col_types = FALSE` to quiet this message.
> amazon_test
# A tibble: 58,921 × 10
      id RESOURCE MGR_ID ROLE_ROLLUP_1 ROLE_ROLLUP_2 ROLE_DEPTNAME ROLE_TITLE
   <dbl>    <dbl>  <dbl>         <dbl>         <dbl>         <dbl>      <dbl>
 1     1    78766  72734        118079        118080        117878     117879
 2     2    40644   4378        117961        118327        118507     118863
 3     3    75443   2395        117961        118300        119488     118172
 4     4    43219  19986        117961        118225        118403     120773
 5     5    42093  50015        117961        118343        119598     118422
 6     6    44722   1755        117961        117962        119223     125793
 7     7    75834  21135        117961        118343        123494     118054
 8     8     4675   3077        117961        118300        120312     124194
 9     9    18072  15575        117902        118041        118623     280788
10    10    22680   4474        117961        118446        119064     118321
# ℹ 58,911 more rows
# ℹ 3 more variables: ROLE_FAMILY_DESC <dbl>, ROLE_FAMILY <dbl>,
#   ROLE_CODE <dbl>
> amazon_train <- vroom("./train.csv")
Rows: 32769 Columns: 10
── Column specification ────────────────────────────────────────────────────────
Delimiter: ","
dbl (10): ACTION, RESOURCE, MGR_ID, ROLE_ROLLUP_1, ROLE_ROLLUP_2, ROLE_DEPTN...

ℹ Use `spec()` to retrieve the full column specification for this data.
ℹ Specify the column types or set `show_col_types = FALSE` to quiet this message.
> amazon_train
# A tibble: 32,769 × 10
   ACTION RESOURCE MGR_ID ROLE_ROLLUP_1 ROLE_ROLLUP_2 ROLE_DEPTNAME ROLE_TITLE
    <dbl>    <dbl>  <dbl>         <dbl>         <dbl>         <dbl>      <dbl>
 1      1    39353  85475        117961        118300        123472     117905
 2      1    17183   1540        117961        118343        123125     118536
 3      1    36724  14457        118219        118220        117884     117879
 4      1    36135   5396        117961        118343        119993     118321
 5      1    42680   5905        117929        117930        119569     119323
 6      0    45333  14561        117951        117952        118008     118568
 7      1    25993  17227        117961        118343        123476     118980
 8      1    19666   4209        117961        117969        118910     126820
 9      1    31246    783        117961        118413        120584     128230
10      1    78766  56683        118079        118080        117878     117879
# ℹ 32,759 more rows
# ℹ 3 more variables: ROLE_FAMILY_DESC <dbl>, ROLE_FAMILY <dbl>,
#   ROLE_CODE <dbl>
…
> # Feature Engineering
> sweet_recipe <- recipe(ACTION~., data=amazon_train) %>%
+   step_mutate_at(all_numeric_predictors(), fn = factor) %>% # turn all numeric features into factors
+   step_other(all_nominal_predictors(), threshold = .00001) %>% # combines rare categories that occur less often
+   step_lencode_mixed(all_nominal_predictors(), outcome = vars(ACTION))%>% #target encoding
+   step_normalize(all_predictors())
> 
> 
> # NOTE: some of these step functions are not appropriate to use together
> 
> # apply the recipe to your data
> prep_recipe <- prep(sweet_recipe)
> baked <- bake(prep_recipe, new_data = amazon_train)
> baked
# A tibble: 32,769 × 10
   RESOURCE MGR_ID ROLE_ROLLUP_1 ROLE_ROLLUP_2 ROLE_DEPTNAME ROLE_TITLE
      <dbl>  <dbl>         <dbl>         <dbl>         <dbl>      <dbl>
 1  -0.351  -0.954        -0.141        -0.278      -0.00436     -0.469
 2  -0.0555 -0.588        -0.141        -0.955       1.12        -0.334
 3  -0.290  -0.465         1.02          0.879       0.746        1.24 
 4  -0.223  -0.988        -0.141        -0.955      -1.25         0.773
 5  -0.594  -0.573         0.614         1.67        2.11         1.36 
 6   1.29    2.02          0.419         0.474       1.18         0.675
 7   0.389  -0.709        -0.141        -0.955      -0.923        0.605
 8  -0.891  -0.524        -0.141         0.707      -0.118        0.456
 9  -0.407  -0.797        -0.141        -0.673       0.101        0.881
10  -0.773  -0.418         3.47          2.69        0.503        1.24 
# ℹ 32,759 more rows
# ℹ 4 more variables: ROLE_FAMILY_DESC <dbl>, ROLE_FAMILY <dbl>,
#   ROLE_CODE <dbl>, ACTION <fct>
…
